Introduction to the Tidyverse
…
---

# Pick a few journals

```r
citations_ecology <- citations %>%
  mutate(journal = str_to_lower(journal)) %>% # all journals names lowercase
  filter(journal %in%
           c('journal of animal ecology','journal of applied ecology','ecology')) # filter
citations_ecology
```

```
## # A tibble: 216 × 12
##    journal impactfactor pubyear Volume Issue Authors   colldate pubdate nbtweets
##    <chr>          <dbl>   <dbl>  <dbl> <chr> <chr>     <chr>    <chr>      <dbl>
##  1 ecology         6.16    2014     95 12    Magliane… 3/19/20… 12/1/2…        1
##  2 ecology         6.16    2014     95 12    Soinen    3/19/20… 12/1/2…        6
##  3 ecology         6.16    2014     95 12    Graham a… 3/19/20… 12/1/2…        1
##  4 ecology         6.16    2014     95 11    White et… 3/19/20… 11/1/2…        9
##  5 ecology         6.16    2014     95 11    Einarson… 3/19/20… 11/1/2…       15
##  6 ecology         6.16    2014     95 11    Haav and… 3/19/20… 11/1/2…        2
##  7 ecology         6.16    2014     95 10    Dodds et… 3/19/20… 10/1/2…        1
##  8 ecology         6.16    2014     95 10    Brown et… 3/19/20… 10/1/2…        1
##  9 ecology         6.16    2014     95 10    Wright e… 3/19/20… 10/1/2…        0
## 10 ecology         6.16    2014     95 9     Ramahlo … 3/19/20… 9/1/20…       27
## # … with 206 more rows, and 3 more variables: `Number of users` <dbl>,
## #   `Twitter reach` <dbl>, woscitations <dbl>
```
…
