Introduction to the Tidyverse
…
* "A framework for managing data that aims at making the cleaning and preparing steps [muuuuuuuch] easier" (Julien Barnier).

* Main characteristics of a tidy dataset:
    - each variable is a column
    - each observation is a raw
    - each value is in a different cell

<img src="assets/img/tidydata.png" width="80%" style="display: block; margin: auto;" />

---

# Is this dataset tidy?

```r
#> # A tibble: 12 x 4
#>   country      year type           count
#>   <chr>       <int> <chr>          <int>
#> 1 Afghanistan  1999 cases            745
#> 2 Afghanistan  1999 population  19987071
#> 3 Afghanistan  2000 cases           2666
#> 4 Afghanistan  2000 population  20595360
#> 5 Brazil       1999 cases          37737
#> 6 Brazil       1999 population 172006362
#> # … with 6 more rows
```

---

# Is this dataset tidy? Nop. 

```r
#> # A tibble: 12 x 4
#>   country      year type           count
#>   <chr>       <int> <chr>          <int>
#> 1 Afghanistan  1999 cases            745
#> 2 Afghanistan  1999 population  19987071
#> 3 Afghanistan  2000 cases           2666
#> 4 Afghanistan  2000 population  20595360
#> 5 Brazil       1999 cases          37737
#> 6 Brazil       1999 population 172006362
#> # … with 6 more rows
```
…
* is daaaaaamn fast 🏎

---

# Import data

```r
citations_raw <- read_csv('https://raw.githubusercontent.com/oliviergimenez/intro_tidyverse/master/journal.pone.0166570.s001.CSV')
citations_raw
```

```
## # A tibble: 1,599 × 12
##    `Journal identity` `5-year journal im…` `Year published` Volume Issue Authors
##    <chr>                             <dbl>            <dbl>  <dbl> <chr> <chr>  
##  1 Ecology Letters                    16.7             2014     17 12    Morin …
##  2 Ecology Letters                    16.7             2014     17 12    Jucker…
##  3 Ecology Letters                    16.7             2014     17 12    Calcag…
##  4 Ecology Letters                    16.7             2014     17 11    Segre …
##  5 Ecology Letters                    16.7             2014     17 11    Kaufma…
##  6 Ecology Letters                    16.7             2014     17 10    Nasto …
##  7 Ecology Letters                    16.7             2014     17 10    Tschir…
##  8 Ecology Letters                    16.7             2014     17 9     Barnec…
##  9 Ecology Letters                    16.7             2014     17 9     Pinto-…
## 10 Ecology Letters                    16.7             2014     17 9     Clough…
## # … with 1,589 more rows, and 6 more variables: `Collection date` <chr>,
## #   `Publication date` <chr>, `Number of tweets` <dbl>,
## #   `Number of users` <dbl>, `Twitter reach` <dbl>,
## #   `Number of Web of Science citations` <dbl>
```
…
```r
citations_temp <- rename(citations_raw,
       journal = 'Journal identity',
       impactfactor = '5-year journal impact factor',
       pubyear = 'Year published',
       colldate = 'Collection date',
       pubdate = 'Publication date',
       nbtweets = 'Number of tweets',
       woscitations = 'Number of Web of Science citations')
citations_temp
```

```
## # A tibble: 1,599 × 12
##    journal   impactfactor pubyear Volume Issue Authors colldate pubdate nbtweets
##    <chr>            <dbl>   <dbl>  <dbl> <chr> <chr>   <chr>    <chr>      <dbl>
##  1 Ecology …         16.7    2014     17 12    Morin … 2/1/2016 9/16/2…       18
##  2 Ecology …         16.7    2014     17 12    Jucker… 2/1/2016 10/13/…       15
##  3 Ecology …         16.7    2014     17 12    Calcag… 2/1/2016 10/21/…        5
##  4 Ecology …         16.7    2014     17 11    Segre … 2/1/2016 8/28/2…        9
##  5 Ecology …         16.7    2014     17 11    Kaufma… 2/1/2016 8/28/2…        3
##  6 Ecology …         16.7    2014     17 10    Nasto … 2/2/2016 7/28/2…       27
##  7 Ecology …         16.7    2014     17 10    Tschir… 2/2/2016 8/6/20…        6
##  8 Ecology …         16.7    2014     17 9     Barnec… 2/2/2016 6/17/2…       19
##  9 Ecology …         16.7    2014     17 9     Pinto-… 2/2/2016 6/12/2…       26
## 10 Ecology …         16.7    2014     17 9     Clough… 2/2/2016 7/17/2…       44
## # … with 1,589 more rows, and 3 more variables: `Number of users` <dbl>,
## #   `Twitter reach` <dbl>, woscitations <dbl>
```

---

# Clean up column names

```r
janitor::clean_names(citations_raw)
```

```
## # A tibble: 1,599 × 12
##    journal_identity x5_year_journal_impact_… year_published volume issue authors
##    <chr>                               <dbl>          <dbl>  <dbl> <chr> <chr>  
##  1 Ecology Letters                      16.7           2014     17 12    Morin …
##  2 Ecology Letters                      16.7           2014     17 12    Jucker…
##  3 Ecology Letters                      16.7           2014     17 12    Calcag…
##  4 Ecology Letters                      16.7           2014     17 11    Segre …
##  5 Ecology Letters                      16.7           2014     17 11    Kaufma…
##  6 Ecology Letters                      16.7           2014     17 10    Nasto …
##  7 Ecology Letters                      16.7           2014     17 10    Tschir…
##  8 Ecology Letters                      16.7           2014     17 9     Barnec…
##  9 Ecology Letters                      16.7           2014     17 9     Pinto-…
## 10 Ecology Letters                      16.7           2014     17 9     Clough…
## # … with 1,589 more rows, and 6 more variables: collection_date <chr>,
## #   publication_date <chr>, number_of_tweets <dbl>, number_of_users <dbl>,
## #   twitter_reach <dbl>, number_of_web_of_science_citations <dbl>
```

---

# Create (or modify) columns

```r
citations <- mutate(citations_temp, journal = as.factor(journal))
citations
```

```
## # A tibble: 1,599 × 12
##    journal   impactfactor pubyear Volume Issue Authors colldate pubdate nbtweets
##    <fct>            <dbl>   <dbl>  <dbl> <chr> <chr>   <chr>    <chr>      <dbl>
##  1 Ecology …         16.7    2014     17 12    Morin … 2/1/2016 9/16/2…       18
##  2 Ecology …         16.7    2014     17 12    Jucker… 2/1/2016 10/13/…       15
##  3 Ecology …         16.7    2014     17 12    Calcag… 2/1/2016 10/21/…        5
##  4 Ecology …         16.7    2014     17 11    Segre … 2/1/2016 8/28/2…        9
##  5 Ecology …         16.7    2014     17 11    Kaufma… 2/1/2016 8/28/2…        3
##  6 Ecology …         16.7    2014     17 10    Nasto … 2/2/2016 7/28/2…       27
##  7 Ecology …         16.7    2014     17 10    Tschir… 2/2/2016 8/6/20…        6
##  8 Ecology …         16.7    2014     17 9     Barnec… 2/2/2016 6/17/2…       19
##  9 Ecology …         16.7    2014     17 9     Pinto-… 2/2/2016 6/12/2…       26
## 10 Ecology …         16.7    2014     17 9     Clough… 2/2/2016 7/17/2…       44
## # … with 1,589 more rows, and 3 more variables: `Number of users` <dbl>,
## #   `Twitter reach` <dbl>, woscitations <dbl>
```
…
```r
citations_raw %>%
  rename(journal = 'Journal identity',
       impactfactor = '5-year journal impact factor',
       pubyear = 'Year published',
       colldate = 'Collection date',
       pubdate = 'Publication date',
       nbtweets = 'Number of tweets',
       woscitations = 'Number of Web of Science citations') %>%
  mutate(journal = as.factor(journal))
```

```
## # A tibble: 1,599 × 12
##    journal   impactfactor pubyear Volume Issue Authors colldate pubdate nbtweets
##    <fct>            <dbl>   <dbl>  <dbl> <chr> <chr>   <chr>    <chr>      <dbl>
##  1 Ecology …         16.7    2014     17 12    Morin … 2/1/2016 9/16/2…       18
##  2 Ecology …         16.7    2014     17 12    Jucker… 2/1/2016 10/13/…       15
##  3 Ecology …         16.7    2014     17 12    Calcag… 2/1/2016 10/21/…        5
##  4 Ecology …         16.7    2014     17 11    Segre … 2/1/2016 8/28/2…        9
##  5 Ecology …         16.7    2014     17 11    Kaufma… 2/1/2016 8/28/2…        3
##  6 Ecology …         16.7    2014     17 10    Nasto … 2/2/2016 7/28/2…       27
##  7 Ecology …         16.7    2014     17 10    Tschir… 2/2/2016 8/6/20…        6
##  8 Ecology …         16.7    2014     17 9     Barnec… 2/2/2016 6/17/2…       19
##  9 Ecology …         16.7    2014     17 9     Pinto-… 2/2/2016 6/12/2…       26
## 10 Ecology …         16.7    2014     17 9     Clough… 2/2/2016 7/17/2…       44
## # … with 1,589 more rows, and 3 more variables: `Number of users` <dbl>,
## #   `Twitter reach` <dbl>, woscitations <dbl>
```
…
# Tidy, transform

---

# Select columns

```r
citations %>%
  select(journal, impactfactor, nbtweets)
```

```
## # A tibble: 1,599 × 3
##    journal         impactfactor nbtweets
##    <fct>                  <dbl>    <dbl>
##  1 Ecology Letters         16.7       18
##  2 Ecology Letters         16.7       15
##  3 Ecology Letters         16.7        5
##  4 Ecology Letters         16.7        9
##  5 Ecology Letters         16.7        3
##  6 Ecology Letters         16.7       27
##  7 Ecology Letters         16.7        6
##  8 Ecology Letters         16.7       19
##  9 Ecology Letters         16.7       26
## 10 Ecology Letters         16.7       44
## # … with 1,589 more rows
```

---

# Drop columns

```r
citations %>%
  select(-Volume, -Issue, -Authors)
```

```
## # A tibble: 1,599 × 9
##    journal       impactfactor pubyear colldate pubdate nbtweets `Number of use…`
##    <fct>                <dbl>   <dbl> <chr>    <chr>      <dbl>            <dbl>
##  1 Ecology Lett…         16.7    2014 2/1/2016 9/16/2…       18               16
##  2 Ecology Lett…         16.7    2014 2/1/2016 10/13/…       15               12
##  3 Ecology Lett…         16.7    2014 2/1/2016 10/21/…        5                4
##  4 Ecology Lett…         16.7    2014 2/1/2016 8/28/2…        9                8
##  5 Ecology Lett…         16.7    2014 2/1/2016 8/28/2…        3                3
##  6 Ecology Lett…         16.7    2014 2/2/2016 7/28/2…       27               23
##  7 Ecology Lett…         16.7    2014 2/2/2016 8/6/20…        6                6
##  8 Ecology Lett…         16.7    2014 2/2/2016 6/17/2…       19               18
##  9 Ecology Lett…         16.7    2014 2/2/2016 6/12/2…       26               23
## 10 Ecology Lett…         16.7    2014 2/2/2016 7/17/2…       44               42
## # … with 1,589 more rows, and 2 more variables: `Twitter reach` <dbl>,
## #   woscitations <dbl>
```

---

# Split a column in several columns

```r
citations %>%
  separate(pubdate,c('month','day','year'),'/')
```

```
## # A tibble: 1,599 × 14
##    journal  impactfactor pubyear Volume Issue Authors colldate month day   year 
##    <fct>           <dbl>   <dbl>  <dbl> <chr> <chr>   <chr>    <chr> <chr> <chr>
##  1 Ecology…         16.7    2014     17 12    Morin … 2/1/2016 9     16    2014 
##  2 Ecology…         16.7    2014     17 12    Jucker… 2/1/2016 10    13    2014 
##  3 Ecology…         16.7    2014     17 12    Calcag… 2/1/2016 10    21    2014 
##  4 Ecology…         16.7    2014     17 11    Segre … 2/1/2016 8     28    2014 
##  5 Ecology…         16.7    2014     17 11    Kaufma… 2/1/2016 8     28    2014 
##  6 Ecology…         16.7    2014     17 10    Nasto … 2/2/2016 7     28    2014 
##  7 Ecology…         16.7    2014     17 10    Tschir… 2/2/2016 8     6     2014 
##  8 Ecology…         16.7    2014     17 9     Barnec… 2/2/2016 6     17    2014 
##  9 Ecology…         16.7    2014     17 9     Pinto-… 2/2/2016 6     12    2014 
## 10 Ecology…         16.7    2014     17 9     Clough… 2/2/2016 7     17    2014 
## # … with 1,589 more rows, and 4 more variables: nbtweets <dbl>,
## #   `Number of users` <dbl>, `Twitter reach` <dbl>, woscitations <dbl>
```

---

# Transform in Date format...

```r
library(lubridate)
citations %>%
  mutate(pubdate = mdy(pubdate),
         colldate = mdy(colldate))
```

```
## # A tibble: 1,599 × 12
##    journal       impactfactor pubyear Volume Issue Authors colldate   pubdate   
##    <fct>                <dbl>   <dbl>  <dbl> <chr> <chr>   <date>     <date>    
##  1 Ecology Lett…         16.7    2014     17 12    Morin … 2016-02-01 2014-09-16
##  2 Ecology Lett…         16.7    2014     17 12    Jucker… 2016-02-01 2014-10-13
##  3 Ecology Lett…         16.7    2014     17 12    Calcag… 2016-02-01 2014-10-21
##  4 Ecology Lett…         16.7    2014     17 11    Segre … 2016-02-01 2014-08-28
##  5 Ecology Lett…         16.7    2014     17 11    Kaufma… 2016-02-01 2014-08-28
##  6 Ecology Lett…         16.7    2014     17 10    Nasto … 2016-02-02 2014-07-28
##  7 Ecology Lett…         16.7    2014     17 10    Tschir… 2016-02-02 2014-08-06
##  8 Ecology Lett…         16.7    2014     17 9     Barnec… 2016-02-02 2014-06-17
##  9 Ecology Lett…         16.7    2014     17 9     Pinto-… 2016-02-02 2014-06-12
## 10 Ecology Lett…         16.7    2014     17 9     Clough… 2016-02-02 2014-07-17
## # … with 1,589 more rows, and 4 more variables: nbtweets <dbl>,
## #   `Number of users` <dbl>, `Twitter reach` <dbl>, woscitations <dbl>
```

---

# ...for easy manipulation of dates

```r
library(lubridate)
citations %>%
  mutate(pubdate = mdy(pubdate),
         colldate = mdy(colldate),
*        pubyear2 = year(pubdate))
```

```
## # A tibble: 1,599 × 13
##    journal       impactfactor pubyear Volume Issue Authors colldate   pubdate   
##    <fct>                <dbl>   <dbl>  <dbl> <chr> <chr>   <date>     <date>    
##  1 Ecology Lett…         16.7    2014     17 12    Morin … 2016-02-01 2014-09-16
##  2 Ecology Lett…         16.7    2014     17 12    Jucker… 2016-02-01 2014-10-13
##  3 Ecology Lett…         16.7    2014     17 12    Calcag… 2016-02-01 2014-10-21
##  4 Ecology Lett…         16.7    2014     17 11    Segre … 2016-02-01 2014-08-28
##  5 Ecology Lett…         16.7    2014     17 11    Kaufma… 2016-02-01 2014-08-28
##  6 Ecology Lett…         16.7    2014     17 10    Nasto … 2016-02-02 2014-07-28
##  7 Ecology Lett…         16.7    2014     17 10    Tschir… 2016-02-02 2014-08-06
##  8 Ecology Lett…         16.7    2014     17 9     Barnec… 2016-02-02 2014-06-17
##  9 Ecology Lett…         16.7    2014     17 9     Pinto-… 2016-02-02 2014-06-12
## 10 Ecology Lett…         16.7    2014     17 9     Clough… 2016-02-02 2014-07-17
## # … with 1,589 more rows, and 5 more variables: nbtweets <dbl>,
## #   `Number of users` <dbl>, `Twitter reach` <dbl>, woscitations <dbl>,
## #   pubyear2 <dbl>
```
…
# Easy character manipulation

---

# Select rows corresponding to papers with more than 3 authors

```r
citations %>%
* filter(str_detect(Authors,'et al'))
```

```
## # A tibble: 1,280 × 12
##    journal   impactfactor pubyear Volume Issue Authors colldate pubdate nbtweets
##    <fct>            <dbl>   <dbl>  <dbl> <chr> <chr>   <chr>    <chr>      <dbl>
##  1 Ecology …         16.7    2014     17 12    Morin … 2/1/2016 9/16/2…       18
##  2 Ecology …         16.7    2014     17 12    Jucker… 2/1/2016 10/13/…       15
##  3 Ecology …         16.7    2014     17 12    Calcag… 2/1/2016 10/21/…        5
##  4 Ecology …         16.7    2014     17 11    Segre … 2/1/2016 8/28/2…        9
##  5 Ecology …         16.7    2014     17 11    Kaufma… 2/1/2016 8/28/2…        3
##  6 Ecology …         16.7    2014     17 10    Nasto … 2/2/2016 7/28/2…       27
##  7 Ecology …         16.7    2014     17 10    Tschir… 2/2/2016 8/6/20…        6
##  8 Ecology …         16.7    2014     17 9     Barnec… 2/2/2016 6/17/2…       19
##  9 Ecology …         16.7    2014     17 9     Pinto-… 2/2/2016 6/12/2…       26
## 10 Ecology …         16.7    2014     17 9     Clough… 2/2/2016 7/17/2…       44
## # … with 1,270 more rows, and 3 more variables: `Number of users` <dbl>,
## #   `Twitter reach` <dbl>, woscitations <dbl>
```

---

# Get column with rows corresponding to papers with more than 3 authors

```r
citations %>%
* filter(str_detect(Authors,'et al')) %>%
* select(Authors)
```

```
## # A tibble: 1,280 × 1
##    Authors            
##    <chr>              
##  1 Morin et al        
##  2 Jucker et al       
##  3 Calcagno et al     
##  4 Segre et al        
##  5 Kaufman et al      
##  6 Nasto et al        
##  7 Tschirren et al    
##  8 Barnechi et al     
##  9 Pinto-Sanchez et al
## 10 Clough et al       
## # … with 1,270 more rows
```

---

# Select rows corresponding to papers with less than 3 authors

```r
citations %>%
* filter(!str_detect(Authors,'et al'))
```

```
## # A tibble: 319 × 12
##    journal   impactfactor pubyear Volume Issue Authors colldate pubdate nbtweets
##    <fct>            <dbl>   <dbl>  <dbl> <chr> <chr>   <chr>    <chr>      <dbl>
##  1 Ecology …         16.7    2014     17 6     Neutle… 2/15/20… 3/17/2…        8
##  2 Ecology …         16.7    2014     17 5     Kellne… 2/15/20… 2/20/2…       18
##  3 Ecology …         16.7    2014     17 4     Griffi… 2/15/20… 1/16/2…        4
##  4 Ecology …         16.7    2014     17 3     Gremer… 2/15/20… 1/17/2…        4
##  5 Ecology …         16.7    2014     17 2     Cavier… 2/15/20… 10/17/…       16
##  6 Ecology …         16.7    2014     17 2     Haegma… 2/15/20… 12/5/2…        9
##  7 Ecology …         16.7    2013     16 12    Kearney 2/15/20… 10/1/2…       13
##  8 Ecology …         16.7    2013     16 9     Locey … 2/15/20… 7/15/2…       28
##  9 Ecology …         16.7    2013     16 8     Quinte… 2/15/20… 6/26/2…      120
## 10 Ecology …         16.7    2013     16 3     Lesser… 2/15/20… 12/22/…        9
## # … with 309 more rows, and 3 more variables: `Number of users` <dbl>,
## #   `Twitter reach` <dbl>, woscitations <dbl>
```

---

# Get column with rows corresponding to papers with less than 3 authors

```r
citations %>%
* filter(!str_detect(Authors,'et al')) %>%
* select(Authors)
```

```
## # A tibble: 319 × 1
##    Authors           
##    <chr>             
##  1 Neutle and Thorne 
##  2 Kellner and Asner 
##  3 Griffin and Willi 
##  4 Gremer and Venable
##  5 Cavieres          
##  6 Haegman and Loreau
##  7 Kearney           
##  8 Locey and White   
##  9 Quintero and Weins
## 10 Lesser and Jackson
## # … with 309 more rows
```
…
---

# Select rows corresponding to papers with less than 3 authors in journal with IF < 5

```r
citations %>%
* filter(!str_detect(Authors,'et al'), impactfactor < 5)
```

```
## # A tibble: 77 × 12
##    journal   impactfactor pubyear Volume Issue Authors colldate pubdate nbtweets
##    <fct>            <dbl>   <dbl>  <dbl> <chr> <chr>   <chr>    <chr>      <dbl>
##  1 Molecula…         4.9     2014     14 6     Gautier 2/27/20… 5/14/2…        2
##  2 Molecula…         4.9     2014     14 5     Gambel… 2/27/20… 3/7/20…        7
##  3 Molecula…         4.9     2014     14 4     Kekkon… 2/27/20… 3/10/2…        4
##  4 Molecula…         4.9     2014     14 3     Bhatta… 2/27/20… 12/8/2…        0
##  5 Molecula…         4.9     2014     14 1     Christ… 2/28/20… 10/25/…        0
##  6 Molecula…         4.9     2013     13 4     Villar… 2/28/20… 5/2/20…        0
##  7 Molecula…         4.9     2013     13 4     Wang    2/28/20… 4/25/2…        0
##  8 Molecula…         4.9     2012     12 1     Joly    2/28/20… 9/7/20…        3
##  9 Animal C…         3.21    2014     17 6     Plavsic 2/9/2016 4/17/2…        9
## 10 Animal C…         3.21    2014     17 Supp… Knox a… 2/11/20… 11/13/…        1
## # … with 67 more rows, and 3 more variables: `Number of users` <dbl>,
## #   `Twitter reach` <dbl>, woscitations <dbl>
```

---

# Convert words to lowercase

```r
citations %>%
* mutate(authors_lowercase = str_to_lower(Authors)) %>%
  select(authors_lowercase)
```

```
## # A tibble: 1,599 × 1
##    authors_lowercase  
##    <chr>              
##  1 morin et al        
##  2 jucker et al       
##  3 calcagno et al     
##  4 segre et al        
##  5 kaufman et al      
##  6 nasto et al        
##  7 tschirren et al    
##  8 barnechi et al     
##  9 pinto-sanchez et al
## 10 clough et al       
## # … with 1,589 more rows
```
…
